^C:\DOCUMENTS AND SETTINGS\ОПС\МОИ ДОКУМЕНТЫ\VISUAL STUDIO 2010\PROJECTS\SHARPULATOR\SHARPULATOR\FORMULATOR.RESX|C:\DOCUMENTS AND SETTINGS\ОПС\МОИ ДОКУМЕНТЫ\VISUAL STUDIO 2010\PROJECTS\SHARPULATOR\SHARPULATOR\PROPERTIES\RESOURCES.RESX
C:\DOCUMENTS AND SETTINGS\опс\мои документы\VISUAL STUDIO 2010\PROJECTS\SHARPULATOR\SHARPULATOR\OBJ\X86\DEBUG\SHARPULATOR.SHARPULATORFORM.RESOURCES
C:\DOCUMENTS AND SETTINGS\опс\мои документы\VISUAL STUDIO 2010\PROJECTS\SHARPULATOR\SHARPULATOR\OBJ\X86\DEBUG\SHARPULATOR.PROPERTIES.RESOURCES.RESOURCES
^C:\DOCUMENTS AND SETTINGS\ОПС\МОИ ДОКУМЕНТЫ\VISUAL STUDIO 2010\PROJECTS\SHARPULATOR\SHARPULATOR\FORMULATOR.RESX|C:\DOCUMENTS AND SETTINGS\ОПС\МОИ ДОКУМЕНТЫ\VISUAL STUDIO 2010\PROJECTS\SHARPULATOR\SHARPULATOR\PROPERTIES\RESOURCES.RESX|C:\DOCUMENTS AND SETTINGS\ОПС\МОИ ДОКУМЕНТЫ\VISUAL STUDIO 2010\PROJECTS\SHARPULATOR\SHARPULATOR\RESOURCES\FORMULATOR.RESX
C:\DOCUMENTS AND SETTINGS\опс\мои документы\VISUAL STUDIO 2010\PROJECTS\SHARPULATOR\SHARPULATOR\OBJ\X86\DEBUG\SHARPULATOR.SHARPULATORFORM.RESOURCES
C:\DOCUMENTS AND SETTINGS\опс\мои документы\VISUAL STUDIO 2010\PROJECTS\SHARPULATOR\SHARPULATOR\OBJ\X86\DEBUG\SHARPULATOR.PROPERTIES.RESOURCES.RESOURCES
C:\DOCUMENTS AND SETTINGS\опс\мои документы\VISUAL STUDIO 2010\PROJECTS\SHARPULATOR\SHARPULATOR\OBJ\X86\DEBUG\SHARPULATOR.RESOURCES.FORMULATOR.RESOURCES
^D:\DATA\ADMIN\DOCUMENTS\VISUAL STUDIO 2010\PROJECTS\SHARPULATOR\SHARPULATOR\FORMULATOR.RESX|D:\DATA\ADMIN\DOCUMENTS\VISUAL STUDIO 2010\PROJECTS\SHARPULATOR\SHARPULATOR\PROPERTIES\RESOURCES.RESX|D:\DATA\ADMIN\DOCUMENTS\VISUAL STUDIO 2010\PROJECTS\SHARPULATOR\SHARPULATOR\RESOURCES\FORMULATOR.RESX
D:\DATA\ADMIN\DOCUMENTS\VISUAL STUDIO 2010\PROJECTS\SHARPULATOR\SHARPULATOR\OBJ\X86\DEBUG\SHARPULATOR.SHARPULATORFORM.RESOURCES
D:\DATA\ADMIN\DOCUMENTS\VISUAL STUDIO 2010\PROJECTS\SHARPULATOR\SHARPULATOR\OBJ\X86\DEBUG\SHARPULATOR.PROPERTIES.RESOURCES.RESOURCES
D:\DATA\ADMIN\DOCUMENTS\VISUAL STUDIO 2010\PROJECTS\SHARPULATOR\SHARPULATOR\OBJ\X86\DEBUG\SHARPULATOR.RESOURCES.FORMULATOR.RESOURCES
